…
```r
new.starwars<-
  initial.starwars %>%
  # Creating a new column that is the square root of height
  mutate(sqrt_height = sqrt(height))

new.starwars %>%
  select(height, sqrt_height)
```

```
## # A tibble: 87 x 2
##    height sqrt_height
##     <int>       <dbl>
##  1    172       13.1 
##  2    167       12.9 
##  3     96        9.80
##  4    202       14.2 
##  5    150       12.2 
##  6    178       13.3 
##  7    165       12.8 
##  8     97        9.85
##  9    183       13.5 
## 10    182       13.5 
## # ... with 77 more rows
```
…
